<?xml version="1.0" encoding="utf-8"?>
<!-- Generator: Adobe Illustrator 18.0.0, SVG Export Plug-In . SVG Version: 6.00 Build 0)  -->
<!DOCTYPE svg PUBLIC "-//W3C//DTD SVG 1.1//EN" "http://www.w3.org/Graphics/SVG/1.1/DTD/svg11.dtd">
<svg version="1.1" id="Слой_1" xmlns="http://www.w3.org/2000/svg" xmlns:xlink="http://www.w3.org/1999/xlink" x="0px" y="0px"
	 width="177.939px" height="101.88px" viewBox="0 0 177.939 101.88" enable-background="new 0 0 177.939 101.88"
	 xml:space="preserve">
<polyline fill="none" stroke="#000000" stroke-width="6" stroke-miterlimit="10" points="2.219,2.018 88.969,97.421 175.719,2.018 
	"/>
</svg>
