<svg width="21" height="14" viewBox="0 0 21 14" fill="none" xmlns="http://www.w3.org/2000/svg">
<rect x="1" y="1.25" width="19" height="11.5" rx="2.5" stroke="#8E85F6"/>
<rect x="3" y="3.875" width="3.125" height="1.25" fill="#8E85F6"/>
<line x1="3" y1="8.375" x2="18" y2="8.375" stroke="#8E85F6"/>
</svg>
