<svg width="23" height="21" viewBox="0 0 23 21" fill="none" xmlns="http://www.w3.org/2000/svg">
<path d="M20.6177 -1.76906e-08H2.11152C1.02591 -1.76906e-08 0.186523 0.883134 0.186523 1.96874V15.0937C0.186523 16.1793 1.06966 17.0624 2.15527 17.0624H4.16776V20.3437C4.16776 20.609 4.32731 20.8487 4.57279 20.9499C4.81477 21.0509 5.09858 20.9971 5.28802 20.8076L9.03322 17.0624H20.6177C21.7033 17.0624 22.5864 16.1793 22.5864 15.0937V1.96874C22.5864 0.88309 21.7033 -1.76906e-08 20.6177 -1.76906e-08Z" fill="#878787"/>
</svg>
