<svg width="19" height="14" viewBox="0 0 19 14" fill="none" xmlns="http://www.w3.org/2000/svg">
<g opacity="0.7">
<rect x="5" width="4" height="4" fill="#ABC333"/>
<rect x="5" y="5" width="4" height="4" fill="#ABC333"/>
<rect x="5" y="10" width="4" height="4" fill="#ABC333"/>
<rect y="5" width="4" height="4" fill="#ABC333"/>
<rect y="10" width="4" height="4" fill="#ABC333"/>
<rect x="15" width="4" height="4" fill="#ABC333"/>
<rect x="15" y="5" width="4" height="4" fill="#ABC333"/>
<rect x="10" width="4" height="4" fill="#ABC333"/>
<rect x="10" y="5" width="4" height="4" fill="#ABC333"/>
<rect x="10" y="10" width="4" height="4" fill="#ABC333"/>
</g>
</svg>
